{
  "filtered_addresses": {
    "thor1dheycdevq39qlkxs2a6wuuzyn4aqxhve4qxtxt": "Reserve Module",
    "thor1g98cy3n9mmjrpn0sxmn63lztelera37n8n67c0": "Pool Module",
    "thor1v8ppstuf6e3x0r4glqc68d5jqcs2tf38cg2q6y": "Synth Module"
  }
}
